Estimación por variables instrumentales (IV)
…
.pull-left-30[

```r
data[,c("race","afroa")]
```

```
# A tibble: 935 x 2
        race afroa
   <dbl+lbl> <dbl>
 1 1 [white]     1
 2 1 [white]     1
 3 1 [white]     1
 4 1 [white]     1
 5 2 [black]     0
 6 1 [white]     1
 7 1 [white]     1
 8 1 [white]     1
 9 1 [white]     1
10 2 [black]     0
# ... with 925 more rows
# i Use `print(n = ...)` to see more rows
```
]

.pull-left-30[

```r
data[,c("wrkstat","working")]
```

```
# A tibble: 935 x 2
                wrkstat working
              <dbl+lbl>   <dbl>
 1 7 [keeping house]          0
 2 1 [working fulltime]       1
 3 3 [temp not working]       0
 4 1 [working fulltime]       1
 5 1 [working fulltime]       1
 6 1 [working fulltime]       1
 7 1 [working fulltime]       1
 8 1 [working fulltime]       1
 9 1 [working fulltime]       1
10 1 [working fulltime]       1
# ... with 925 more rows
# i Use `print(n = ...)` to see more rows
```
]

.pull-left-30[

```r
data[,c("marital","casado")]
```

```
# A tibble: 935 x 2
             marital casado
           <dbl+lbl>  <dbl>
 1 5 [never married]      0
 2 5 [never married]      0
 3 5 [never married]      0
 4 4 [separated]          0
 5 5 [never married]      0
 6 1 [married]            1
 7 5 [never married]      0
 8 1 [married]            1
 9 1 [married]            1
10 5 [never married]      0
# ... with 925 more rows
# i Use `print(n = ...)` to see more rows
```
…
